<?xml version="1.0" encoding="UTF-8" standalone="no"?>
<!-- Created with Inkscape (http://www.inkscape.org/) -->

<svg
   xmlns:dc="http://purl.org/dc/elements/1.1/"
   xmlns:cc="http://creativecommons.org/ns#"
   xmlns:rdf="http://www.w3.org/1999/02/22-rdf-syntax-ns#"
   xmlns:svg="http://www.w3.org/2000/svg"
   xmlns="http://www.w3.org/2000/svg"
   xmlns:xlink="http://www.w3.org/1999/xlink"
   xmlns:sodipodi="http://sodipodi.sourceforge.net/DTD/sodipodi-0.dtd"
   xmlns:inkscape="http://www.inkscape.org/namespaces/inkscape"
   width="28"
   height="25"
   id="svg10621"
   version="1.1"
   inkscape:version="0.48.4 r9939"
   sodipodi:docname="calendar-today.svg">
  <defs
     id="defs10623">
    <radialGradient
       inkscape:collect="always"
       xlink:href="#linearGradient34508-1-3"
       id="radialGradient99561-1"
       gradientUnits="userSpaceOnUse"
       gradientTransform="matrix(0.72146227,0,0,0.27484277,14.205424,21.754717)"
       cx="51"
       cy="30"
       fx="51"
       fy="30"
       r="42" />
    <linearGradient
       inkscape:collect="always"
       id="linearGradient34508-1-3">
      <stop
         style="stop-color:#ffffff;stop-opacity:1;"
         offset="0"
         id="stop34510-1-9" />
      <stop
         style="stop-color:#ffffff;stop-opacity:0;"
         offset="1"
         id="stop34512-4-5" />
    </linearGradient>
    <radialGradient
       r="42"
       fy="30"
       fx="51"
       cy="30"
       cx="51"
       gradientTransform="matrix(0.72146227,0,0,0.27484277,14.205424,21.754717)"
       gradientUnits="userSpaceOnUse"
       id="radialGradient10592"
       xlink:href="#linearGradient34508-1-3"
       inkscape:collect="always" />
    <radialGradient
       inkscape:collect="always"
       xlink:href="#linearGradient34508-1-3"
       id="radialGradient3770"
       gradientUnits="userSpaceOnUse"
       gradientTransform="matrix(0.72146227,0,0,0.27484277,14.205424,21.754717)"
       cx="51"
       cy="30"
       fx="51"
       fy="30"
       r="42" />
    <radialGradient
       inkscape:collect="always"
       xlink:href="#linearGradient34508-1-3"
       id="radialGradient3001"
       gradientUnits="userSpaceOnUse"
       gradientTransform="matrix(0.72146227,0,0,0.27484277,14.205424,21.754717)"
       cx="51"
       cy="30"
       fx="51"
       fy="30"
       r="42" />
    <radialGradient
       inkscape:collect="always"
       xlink:href="#linearGradient34508-1-3"
       id="radialGradient3007"
       gradientUnits="userSpaceOnUse"
       gradientTransform="matrix(0.72146227,0,0,0.27484277,14.205424,21.754717)"
       cx="51"
       cy="30"
       fx="51"
       fy="30"
       r="42" />
    <radialGradient
       inkscape:collect="always"
       xlink:href="#linearGradient34508-1-3"
       id="radialGradient3067"
       gradientUnits="userSpaceOnUse"
       gradientTransform="matrix(0.72146227,0,0,0.27484277,14.205424,21.754717)"
       cx="51"
       cy="30"
       fx="51"
       fy="30"
       r="42" />
    <radialGradient
       inkscape:collect="always"
       xlink:href="#linearGradient34508-1-3"
       id="radialGradient3072"
       gradientUnits="userSpaceOnUse"
       gradientTransform="matrix(0.72146227,0,0,0.27484277,14.205424,21.754717)"
       cx="51"
       cy="30"
       fx="51"
       fy="30"
       r="42" />
    <radialGradient
       inkscape:collect="always"
       xlink:href="#linearGradient34508-1-3"
       id="radialGradient2997"
       gradientUnits="userSpaceOnUse"
       gradientTransform="matrix(0.72146227,0,0,0.27484277,14.205424,21.754717)"
       cx="51"
       cy="30"
       fx="51"
       fy="30"
       r="42" />
  </defs>
  <sodipodi:namedview
     id="base"
     pagecolor="#000000"
     bordercolor="#666666"
     borderopacity="1.0"
     inkscape:pageopacity="0"
     inkscape:pageshadow="2"
     inkscape:zoom="15.839192"
     inkscape:cx="-1.8842684"
     inkscape:cy="8.0837211"
     inkscape:document-units="px"
     inkscape:current-layer="g3003"
     showgrid="false"
     fit-margin-top="0"
     fit-margin-left="0"
     fit-margin-right="0"
     fit-margin-bottom="0"
     inkscape:window-width="1598"
     inkscape:window-height="857"
     inkscape:window-x="0"
     inkscape:window-y="22"
     inkscape:window-maximized="1" />
  <metadata
     id="metadata10626">
    <rdf:RDF>
      <cc:Work
         rdf:about="">
        <dc:format>image/svg+xml</dc:format>
        <dc:type
           rdf:resource="http://purl.org/dc/dcmitype/StillImage" />
        <dc:title />
      </cc:Work>
    </rdf:RDF>
  </metadata>
  <g
     inkscape:label="Layer 1"
     inkscape:groupmode="layer"
     id="layer1"
     transform="translate(-469.08263,-536.99307)">
    <g
       id="g3003">
      <rect
         y="558.85046"
         x="468.96878"
         height="3.1425927"
         width="28.149134"
         id="rect2996"
         style="fill:#e04613;fill-opacity:1;stroke-width:0.43599999000000000;stroke-miterlimit:4;stroke-dasharray:none" />
    </g>
  </g>
</svg>
