<?xml version="1.0" encoding="UTF-8" standalone="no"?>
<!-- Generator: Adobe Illustrator 13.0.2, SVG Export Plug-In . SVG Version: 6.00 Build 14948)  -->

<svg
   xmlns:osb="http://www.openswatchbook.org/uri/2009/osb"
   xmlns:dc="http://purl.org/dc/elements/1.1/"
   xmlns:cc="http://creativecommons.org/ns#"
   xmlns:rdf="http://www.w3.org/1999/02/22-rdf-syntax-ns#"
   xmlns:svg="http://www.w3.org/2000/svg"
   xmlns="http://www.w3.org/2000/svg"
   xmlns:xlink="http://www.w3.org/1999/xlink"
   xmlns:sodipodi="http://sodipodi.sourceforge.net/DTD/sodipodi-0.dtd"
   xmlns:inkscape="http://www.inkscape.org/namespaces/inkscape"
   version="1.0"
   id="Foreground"
   x="0px"
   y="0px"
   width="32"
   height="32"
   viewBox="0 0 23.272727 23.272727"
   enable-background="new 0 0 16 16"
   xml:space="preserve"
   sodipodi:version="0.32"
   inkscape:version="0.48.4 r9939"
   sodipodi:docname="checkbox-focused.svg"
   inkscape:output_extension="org.inkscape.output.svg.inkscape"><metadata
     id="metadata2399"><rdf:RDF><cc:Work
         rdf:about=""><dc:format>image/svg+xml</dc:format><dc:type
           rdf:resource="http://purl.org/dc/dcmitype/StillImage" /><dc:title></dc:title></cc:Work></rdf:RDF></metadata><defs
     id="defs2397"><linearGradient
       id="linearGradient3804"
       osb:paint="gradient"><stop
         style="stop-color:#ffffff;stop-opacity:1;"
         offset="0"
         id="stop3806" /><stop
         style="stop-color:#ffffff;stop-opacity:0;"
         offset="1"
         id="stop3808" /></linearGradient><linearGradient
       id="linearGradient3781"><stop
         id="stop3783"
         offset="0"
         style="stop-color:#ffeacc;stop-opacity:1;" /><stop
         style="stop-color:#ff9e39;stop-opacity:1;"
         offset="0.60000002"
         id="stop3785" /><stop
         id="stop3787"
         offset="0.80000001"
         style="stop-color:#e84e00;stop-opacity:1;" /><stop
         id="stop3789"
         offset="1"
         style="stop-color:#0f0800;stop-opacity:1;" /></linearGradient><marker
       inkscape:stockid="Arrow1Lstart"
       orient="auto"
       refY="0.0"
       refX="0.0"
       id="Arrow1Lstart"
       style="overflow:visible"><path
         id="path3830"
         d="M 0.0,0.0 L 5.0,-5.0 L -12.5,0.0 L 5.0,5.0 L 0.0,0.0 z "
         style="fill-rule:evenodd;stroke:#000000;stroke-width:1.0pt"
         transform="scale(0.8) translate(12.5,0)" /></marker><linearGradient
       id="linearGradient3173"><stop
         style="stop-color:#c4c4c4;stop-opacity:1;"
         offset="0"
         id="stop3175" /><stop
         style="stop-color:#ffffff;stop-opacity:1;"
         offset="1"
         id="stop3177" /></linearGradient><inkscape:perspective
       sodipodi:type="inkscape:persp3d"
       inkscape:vp_x="0 : 8 : 1"
       inkscape:vp_y="0 : 1000 : 0"
       inkscape:vp_z="16 : 8 : 1"
       inkscape:persp3d-origin="8 : 5.3333333 : 1"
       id="perspective2401" /><linearGradient
       id="linearGradient16498-6"><stop
         style="stop-color:#ffeacc;stop-opacity:1;"
         offset="0"
         id="stop16500-8" /><stop
         id="stop3779"
         offset="0.60000002"
         style="stop-color:#ff9e39;stop-opacity:1;" /><stop
         style="stop-color:#e84e00;stop-opacity:1;"
         offset="0.80000001"
         id="stop3781" /><stop
         style="stop-color:#0f0800;stop-opacity:1;"
         offset="1"
         id="stop16502-0" /></linearGradient><radialGradient
       inkscape:collect="always"
       xlink:href="#linearGradient3781"
       id="radialGradient3773"
       cx="7.6582627"
       cy="8.1237602"
       fx="7.6582627"
       fy="8.1237602"
       r="8.6898184"
       gradientTransform="matrix(1,0,0,1.0043102,-0.00201257,0.9947441)"
       gradientUnits="userSpaceOnUse"
       spreadMethod="pad" /><radialGradient
       inkscape:collect="always"
       xlink:href="#linearGradient3781"
       id="radialGradient3801"
       cx="16.53125"
       cy="16.25"
       fx="16.53125"
       fy="16.25"
       r="13.53125"
       gradientTransform="matrix(0.72727272,0,0,0.71551543,10.610795,-2.7008793)"
       gradientUnits="userSpaceOnUse" /><filter
       inkscape:collect="always"
       id="filter3836"
       x="-0.10415422"
       width="1.2083084"
       y="-0.131909"
       height="1.263818"><feGaussianBlur
         inkscape:collect="always"
         stdDeviation="0.42184511"
         id="feGaussianBlur3838" /></filter></defs><sodipodi:namedview
     inkscape:window-height="857"
     inkscape:window-width="1598"
     inkscape:pageshadow="2"
     inkscape:pageopacity="1"
     guidetolerance="10.0"
     gridtolerance="10.0"
     objecttolerance="10.0"
     borderopacity="1.0"
     bordercolor="#666666"
     pagecolor="#ffffff"
     id="base"
     showgrid="false"
     inkscape:zoom="16"
     inkscape:cx="-5.6474689"
     inkscape:cy="13.177648"
     inkscape:window-x="0"
     inkscape:window-y="22"
     inkscape:current-layer="g16402-8"
     showguides="true"
     inkscape:guide-bbox="true"
     borderlayer="true"
     inkscape:showpageshadow="false"
     inkscape:window-maximized="1"
     showborder="true"><inkscape:grid
       type="xygrid"
       id="grid11246"
       empspacing="5"
       visible="true"
       enabled="true"
       snapvisiblegridlinesonly="true" /></sodipodi:namedview><g
     style="display:inline"
     id="g16402-8"
     transform="translate(4.7533483,2.8238929)"><g
       id="g3172-6"
       transform="matrix(0.75505189,0,0,0.80750175,1.1021492,1.420988)" /><rect
       y="1.5816598"
       x="0.0017471336"
       height="14.461621"
       width="13.762536"
       id="rect3791"
       style="fill:#080505;fill-opacity:1;fill-rule:nonzero;stroke:#e04613;stroke-width:1.45454538000000011;stroke-linecap:butt;stroke-linejoin:bevel;stroke-miterlimit:0;stroke-opacity:1;stroke-dasharray:none;stroke-dashoffset:0" /><path
       sodipodi:nodetypes="ccscccccccscccc"
       style="font-size:medium;font-style:normal;font-variant:normal;font-weight:normal;font-stretch:normal;text-indent:0;text-align:start;text-decoration:none;line-height:normal;letter-spacing:normal;word-spacing:normal;text-transform:none;direction:ltr;block-progression:tb;writing-mode:lr-tb;text-anchor:start;color:#bebebe;fill:#e04613;fill-opacity:1;fill-rule:nonzero;stroke:none;stroke-width:1.78124988;marker:none;visibility:visible;display:inline;overflow:visible;enable-background:new;font-family:Andale Mono;-inkscape-font-specification:Andale Mono"
       id="path27279-0-5-1"
       inkscape:connector-curvature="0"
       d="m 2.065975,8.6761919 0.727273,0 c 0.0075,-8.72e-5 0.01512,-3.345e-4 0.02273,0 0.185419,0.00815 0.370815,0.093513 0.5,0.2272728 l 1.659091,1.6590913 5.581772,-5.3958185 c 0.193182,-0.1676364 0.324852,-0.2221818 0.5,-0.2272728 l 0.727273,0 0,0.7272728 c 0,0.2083418 -0.02498,0.4004727 -0.181818,0.5454545 L 6.043251,11.60801 c -0.460544,0.447022 -1.068231,1.006657 -1.068231,1.006657 0,0 -0.561796,-0.522999 -2.704545,-2.6657478 C 2.117208,9.8073701 2.049995,9.6076465 2.065929,9.4034647 z" /><path
       sodipodi:nodetypes="ccscccccccscccc"
       style="font-size:medium;font-style:normal;font-variant:normal;font-weight:normal;font-stretch:normal;text-indent:0;text-align:start;text-decoration:none;line-height:normal;letter-spacing:normal;word-spacing:normal;text-transform:none;direction:ltr;block-progression:tb;writing-mode:lr-tb;text-anchor:start;color:#bebebe;fill:#e04613;fill-opacity:1;fill-rule:nonzero;stroke:none;stroke-width:1.78124988;marker:none;visibility:visible;display:inline;overflow:visible;filter:url(#filter3836);enable-background:new;font-family:Andale Mono;-inkscape-font-specification:Andale Mono"
       id="path27279-0-5-1-8"
       inkscape:connector-curvature="0"
       d="m 2.070565,8.6661422 0.727273,0 c 0.0075,-8.72e-5 0.01512,-3.345e-4 0.02273,0 0.185419,0.00815 0.370815,0.093513 0.5,0.2272728 l 1.659091,1.659091 5.581771,-5.3958182 c 0.193183,-0.1676364 0.324852,-0.2221818 0.5,-0.2272728 l 0.727274,0 0,0.7272728 c 0,0.2083418 -0.02498,0.4004726 -0.181819,0.5454545 L 6.047841,11.59796 c -0.460544,0.447022 -1.068231,1.006657 -1.068231,1.006657 0,0 -0.561796,-0.522999 -2.704545,-2.6657476 C 2.121798,9.7973203 2.054585,9.5975968 2.070519,9.3934149 z" /></g></svg>